%YAML 1.1
%TAG !u! tag:unity3d.com,2011:
--- !u!1 &103798
GameObject:
  m_ObjectHideFlags: 0
  m_PrefabParentObject: {fileID: 0}
  m_PrefabInternal: {fileID: 100100000}
  serializedVersion: 4
  m_Component:
  - 4: {fileID: 497858}
  - 114: {fileID: 11437632}
  m_Layer: 0
  m_Name: GvrAudioRoom
  m_TagString: Untagged
  m_Icon: {fileID: 0}
  m_NavMeshLayer: 0
  m_StaticEditorFlags: 0
  m_IsActive: 1
--- !u!4 &497858
Transform:
  m_ObjectHideFlags: 1
  m_PrefabParentObject: {fileID: 0}
  m_PrefabInternal: {fileID: 100100000}
  m_GameObject: {fileID: 103798}
  m_LocalRotation: {x: 0, y: 0, z: 0, w: 1}
  m_LocalPosition: {x: 0, y: 0, z: 0}
  m_LocalScale: {x: 6, y: 4, z: 10}
  m_Children: []
  m_Father: {fileID: 0}
  m_RootOrder: 0
--- !u!114 &11437632
MonoBehaviour:
  m_ObjectHideFlags: 1
  m_PrefabParentObject: {fileID: 0}
  m_PrefabInternal: {fileID: 100100000}
  m_GameObject: {fileID: 103798}
  m_Enabled: 1
  m_EditorHideFlags: 0
  m_Script: {fileID: 11500000, guid: 1d2722c2401e34d51bf5b473ef7aeefb, type: 3}
  m_Name: 
  m_EditorClassIdentifier: 
  leftWall: 4
  rightWall: 4
  floor: 13
  ceiling: 14
  backWall: 4
  frontWall: 4
  reflectivity: 1
  reverbGainDb: 0
  reverbBrightness: 0
  reverbTime: 1
  size: {x: 1, y: 1, z: 1}
--- !u!1001 &100100000
Prefab:
  m_ObjectHideFlags: 1
  serializedVersion: 2
  m_Modification:
    m_TransformParent: {fileID: 0}
    m_Modifications:
    - target: {fileID: 0}
      propertyPath: leftWall
      value: 4
      objectReference: {fileID: 0}
    - target: {fileID: 0}
      propertyPath: rightWall
      value: 4
      objectReference: {fileID: 0}
    - target: {fileID: 0}
      propertyPath: ceiling
      value: 14
      objectReference: {fileID: 0}
    - target: {fileID: 0}
      propertyPath: backWall
      value: 4
      objectReference: {fileID: 0}
    - target: {fileID: 0}
      propertyPath: frontWall
      value: 4
      objectReference: {fileID: 0}
    - target: {fileID: 0}
      propertyPath: m_LocalScale.x
      value: 6
      objectReference: {fileID: 0}
    - target: {fileID: 0}
      propertyPath: m_LocalScale.z
      value: 10
      objectReference: {fileID: 0}
    m_RemovedComponents: []
  m_ParentPrefab: {fileID: 0}
  m_RootGameObject: {fileID: 103798}
  m_IsPrefabParent: 1
